\relax 
\babel@aux{italian}{}
\babel@aux{italian}{}
\@writefile{toc}{\contentsline {chapter}{\numberline {1}Primo capitolo}{1}}
\@writefile{lof}{\addvspace {10\p@ }}
\@writefile{lot}{\addvspace {10\p@ }}
\@writefile{toc}{\contentsline {paragraph}{Primo paragrafo}{1}}
\@writefile{toc}{\contentsline {paragraph}{Secondo paragrafo}{1}}
\@writefile{toc}{\contentsline {paragraph}{Quinto paragrafo}{1}}
\@writefile{toc}{\contentsline {paragraph}{Sesto paragrafo}{1}}
\@writefile{toc}{\contentsline {chapter}{\numberline {2}Terzo capitolo}{3}}
\@writefile{lof}{\addvspace {10\p@ }}
\@writefile{lot}{\addvspace {10\p@ }}
\@writefile{toc}{\contentsline {section}{\numberline {2.1}Prima sezione}{3}}
\@writefile{toc}{\contentsline {paragraph}{Primo paragrafo}{3}}
\@writefile{toc}{\contentsline {paragraph}{Secondo paragrafo}{3}}
